{
  "pluginMeta": {
    "slp-tagalong": {
      "production": {
        "new_version": "4.1",
        "last_updated": "2014-03-07"
      },
      "prerelease": {
        "new_version": "4.1.01",
        "last_updated": "2014-04-03"
      },
      "zipbase": "slp4-tagalong",
      "textdomain": "csa-slp-tagalong",
      "publishto" : "myserver"
    },
    "store-locator-le": {
      "production": {
        "new_version": "4.1.10",
        "last_updated": "2014-03-12"
      },
      "prerelease": {
        "new_version": "4.1.11",
        "last_updated": "2014-04-03"
      },
      "zipbase": "slp4",
      "textdomain": ["csa-slplus","wpcsl"],
      "publishto" : "wordpress"
    },
    "wordpress-dev-kit-plugin": {
      "production": {
        "new_version": "0.0.01",
        "last_updated": "2014-03-31"
      },
      "prerelease": {
        "new_version": "0.0.02",
        "last_updated": "2014-04-03"
      },
      "textdomain": "csa-wpdevkit",
      "publishto" : "myserver"
    }
  },
  "wp-plugin-dir": "/var/www/html/wp-content/plugins/",
  "wp-username": "charlestonsw"
}